[
    {
        "name": "workshop_apiProduct",
        "apiResources": [],
        "approvalType": "auto",
        "attributes": [
            {
                "name": "description",
                "value": "workshop_apiProduct"
            },
            {
                "name": "access",
                "value": "private"
            }
        ],
        "description": "workshop_apiProduct",
        "displayName": "workshop_apiProduct",
        "environments": [
            "${env}"
        ],
        "proxies": [
            "devops_api-cicd_api-workshop_api"
        ],
        "quota": "10000",
        "quotaInterval": "1",
        "quotaTimeUnit": "month",
        "scopes": []
    } 
]